Opinion spread · Agents.jl Example Zoo
…
stabilize! (generic function with 1 method)
Running the model
First, we create a stopping condition, which runs the model until all agents stabilize.

rununtil(model, s) = count(a -> a.stabilized, allagents(model)) == length(positions(model))

rununtil (generic function with 1 method)
Then we create our model, run it and collect some information

model = create_model(nopinions = 3, levels_per_opinion = 4)

agentdata, _ = run!(model, agent_step!, dummystep, rununtil, adata = [(:stabilized, count)])

(157×2 DataFrame
 Row │ step   count_stabilized
     │ Int64  Int64
─────┼─────────────────────────
   1 │     0                 0
   2 │     1                50
   3 │     2                58
   4 │     3                59
   5 │     4                61
   6 │     5                60
   7 │     6                64
   8 │     7                70
  ⋮  │   ⋮           ⋮
 151 │   150                86
 152 │   151                93
 153 │   152                95
 154 │   153                96
 155 │   154                98
 156 │   155                99
 157 │   156               100
               142 rows omitted, 0×0 DataFrame)
…
